{
    "Author": "Ao Nanashi",
    "Name": "SimpleTranslationPlugin",
    "Description": "It displays a simple translation of NPC's dialogue using online services.'",
    "InternalName": "simpleTranslationPlugin",
    "AssemblyVersion": "1.0.4",
    "RepoUrl": "https://gitlab.com/nanashiao/ffxiv-simple-translation-plugin",
    "ApplicableVersion": "any",
    "Tags": [ "translation", "plugin" ],
    "DalamudApiLevel": 3
}
